[
  {
    "chartType": "area",
    "unitType": "Wind",
    "unitProp": "speed",
    "unitMeasure": "m/s"
  },
  {
    "chartType": "column",
    "unitType": "Temperature",
    "unitProp": "temp.eve",
    "unitMeasure": "Celsius"
  },
  {
    "chartType": "line",
    "unitType": "Pressure",
    "unitProp": "pressure",
    "unitMeasure": "hPa"
  },
  {
    "chartType": "areaspline",
    "unitType": "Humidity",
    "unitProp": "humidity",
    "unitMeasure": "%"
  }
]